<?xml version="1.0" encoding="UTF-8" standalone="no"?>
<svg
   xmlns:sketch="http://www.bohemiancoding.com/sketch/ns"
   xmlns:dc="http://purl.org/dc/elements/1.1/"
   xmlns:cc="http://creativecommons.org/ns#"
   xmlns:rdf="http://www.w3.org/1999/02/22-rdf-syntax-ns#"
   xmlns:svg="http://www.w3.org/2000/svg"
   xmlns="http://www.w3.org/2000/svg"
   xmlns:sodipodi="http://sodipodi.sourceforge.net/DTD/sodipodi-0.dtd"
   xmlns:inkscape="http://www.inkscape.org/namespaces/inkscape"
   width="30px"
   height="30px"
   viewBox="0 0 30 30"
   version="1.1"
   id="svg3369"
   inkscape:version="0.91 r13725"
   sodipodi:docname="icon_linkedin_b.svg">
  <metadata
     id="metadata3390">
    <rdf:RDF>
      <cc:Work
         rdf:about="">
        <dc:format>image/svg+xml</dc:format>
        <dc:type
           rdf:resource="http://purl.org/dc/dcmitype/StillImage" />
        <dc:title>icon_linkedin</dc:title>
      </cc:Work>
    </rdf:RDF>
  </metadata>
  <sodipodi:namedview
     pagecolor="#ffffff"
     bordercolor="#666666"
     borderopacity="1"
     objecttolerance="10"
     gridtolerance="10"
     guidetolerance="10"
     inkscape:pageopacity="0"
     inkscape:pageshadow="2"
     inkscape:window-width="640"
     inkscape:window-height="480"
     id="namedview3388"
     showgrid="false"
     inkscape:zoom="7.8666667"
     inkscape:cx="15"
     inkscape:cy="15"
     inkscape:window-x="0"
     inkscape:window-y="27"
     inkscape:window-maximized="0"
     inkscape:current-layer="svg3369" />
  <!-- Generator: Sketch 3.3.2 (12043) - http://www.bohemiancoding.com/sketch -->
  <title
     id="title3371">icon_linkedin</title>
  <desc
     id="desc3373">Created with Sketch.</desc>
  <defs
     id="defs3375" />
  <g
     id="Page-1"
     stroke="none"
     stroke-width="1"
     fill="none"
     fill-rule="evenodd"
     sketch:type="MSPage">
    <g
       id="Artboard-3"
       sketch:type="MSArtboardGroup"
       transform="translate(-397.000000, -92.000000)">
      <rect
         id="Rectangle-26"
         stroke="#979797"
         fill="#D8D8D8"
         sketch:type="MSShapeGroup"
         x="0"
         y="0"
         width="1735"
         height="1028"
         style="fill:none" />
      <g
         id="icon_linkedin"
         sketch:type="MSLayerGroup"
         transform="translate(397.000000, 92.000000)"
         fill="#000000">
        <g
           id="Group"
           sketch:type="MSShapeGroup">
          <path
             d="M17.61,12.7788 C16.335,12.7788 15.7656,13.4796 15.447,13.9716 L15.447,12.9492 L13.0458,12.9492 C13.077,13.626 13.0458,20.1738 13.0458,20.1738 L15.447,20.1738 L15.447,16.1376 C15.447,15.9222 15.4608,15.7056 15.5256,15.5514 C15.6996,15.1194 16.0944,14.6724 16.758,14.6724 C17.6268,14.6724 17.9742,15.3348 17.9742,16.3068 L17.9742,20.172 L20.3754,20.172 L20.376,20.172 L20.376,16.029 C20.3748,13.8114 19.1898,12.7788 17.61,12.7788 L17.61,12.7788 Z M15.4452,13.9968 L15.4302,13.9968 C15.435,13.9884 15.4422,13.9806 15.4452,13.9722 L15.4452,13.9968 L15.4452,13.9968 Z"
             id="Shape"
             style="fill:#000000" />
          <rect
             id="Rectangle-path"
             x="9.3138"
             y="12.9492"
             width="2.4012"
             height="7.2246"
             style="fill:#000000" />
          <path
             d="M14.8956,0 C6.6822,0 0,6.6822 0,14.8956 C0,23.1084 6.6822,29.7912 14.8956,29.7912 C23.1084,29.7912 29.7912,23.1084 29.7912,14.8956 C29.7912,6.6822 23.1096,0 14.8956,0 L14.8956,0 Z M22.7946,21.633 C22.7946,22.2666 22.269,22.779 21.6192,22.779 L8.0706,22.779 C7.4226,22.779 6.8964,22.2666 6.8964,21.633 L6.8964,7.9266 C6.8964,7.2936 7.4226,6.7806 8.0706,6.7806 L21.6192,6.7806 C22.2684,6.7806 22.7946,7.2942 22.7946,7.9266 L22.7946,21.633 L22.7946,21.633 Z"
             id="path3384"
             style="fill:#000000" />
          <path
             d="M10.5306,9.4662 C9.7098,9.4662 9.1722,10.005 9.1722,10.7142 C9.1722,11.4072 9.6936,11.9622 10.4988,11.9622 L10.5144,11.9622 C11.352,11.9622 11.8734,11.4072 11.8734,10.7142 C11.8572,10.0056 11.3526,9.4662 10.5306,9.4662 L10.5306,9.4662 Z"
             id="path3386"
             style="fill:#000000" />
        </g>
      </g>
    </g>
  </g>
</svg>
