<?xml version="1.0" encoding="UTF-8" standalone="no"?>
<svg
   xmlns:sketch="http://www.bohemiancoding.com/sketch/ns"
   xmlns:dc="http://purl.org/dc/elements/1.1/"
   xmlns:cc="http://creativecommons.org/ns#"
   xmlns:rdf="http://www.w3.org/1999/02/22-rdf-syntax-ns#"
   xmlns:svg="http://www.w3.org/2000/svg"
   xmlns="http://www.w3.org/2000/svg"
   xmlns:sodipodi="http://sodipodi.sourceforge.net/DTD/sodipodi-0.dtd"
   xmlns:inkscape="http://www.inkscape.org/namespaces/inkscape"
   width="30px"
   height="30px"
   viewBox="0 0 30 30"
   version="1.1"
   id="svg3392"
   inkscape:version="0.91 r13725"
   sodipodi:docname="icon_pinterest.svg">
  <metadata
     id="metadata3407">
    <rdf:RDF>
      <cc:Work
         rdf:about="">
        <dc:format>image/svg+xml</dc:format>
        <dc:type
           rdf:resource="http://purl.org/dc/dcmitype/StillImage" />
      </cc:Work>
    </rdf:RDF>
  </metadata>
  <sodipodi:namedview
     pagecolor="#ffffff"
     bordercolor="#666666"
     borderopacity="1"
     objecttolerance="10"
     gridtolerance="10"
     guidetolerance="10"
     inkscape:pageopacity="0"
     inkscape:pageshadow="2"
     inkscape:window-width="640"
     inkscape:window-height="480"
     id="namedview3405"
     showgrid="false"
     inkscape:zoom="7.8666667"
     inkscape:cx="15"
     inkscape:cy="15"
     inkscape:window-x="0"
     inkscape:window-y="27"
     inkscape:window-maximized="0"
     inkscape:current-layer="svg3392" />
  <!-- Generator: Sketch 3.3.2 (12043) - http://www.bohemiancoding.com/sketch -->
  <title
     id="title3394">icon_pinterest</title>
  <desc
     id="desc3396">Created with Sketch.</desc>
  <defs
     id="defs3398" />
  <g
     id="Page-1"
     stroke="none"
     stroke-width="1"
     fill="none"
     fill-rule="evenodd"
     sketch:type="MSPage">
    <g
       id="Artboard-3"
       sketch:type="MSArtboardGroup"
       transform="translate(-327.000000, -92.000000)">
      <rect
         id="Rectangle-26"
         stroke="#979797"
         fill="#D8D8D8"
         sketch:type="MSShapeGroup"
         x="0"
         y="0"
         width="1735"
         height="1028"
         style="fill:none" />
      <g
         id="icon_pinterest"
         sketch:type="MSLayerGroup"
         transform="translate(327.000000, 92.000000)"
         fill="#000000">
        <path
           d="M14.9812921,0 C6.70735955,0 0,6.70735955 0,14.9812921 C0,23.2551685 6.70719101,29.9625281 14.9812921,29.9625281 C23.2551685,29.9625281 29.9625843,23.2551685 29.9625843,14.9812921 C29.9625281,6.70735955 23.2551685,0 14.9812921,0 L14.9812921,0 Z M16.4338764,20.0174719 C15.0726966,19.9117416 14.5014607,19.2375281 13.4345506,18.5893258 C12.8475843,21.6669101 12.130618,24.6175281 10.0070225,26.1586517 C9.35146067,21.5072472 10.9694944,18.0136517 11.7207865,14.3048876 C10.4396629,12.1482022 11.8749438,7.80808989 14.577191,8.87786517 C17.9019101,10.1930337 11.6979775,16.8953933 15.8626404,17.7325281 C20.2112921,18.6064607 21.9864607,10.1874719 19.2902247,7.44966292 C15.3939326,3.49646067 7.94898876,7.35955056 8.86449438,13.0195506 C9.08730337,14.4033146 10.5168539,14.8230899 9.43573034,16.7327528 C6.94219101,16.18 6.19808989,14.2133708 6.2938764,11.5913483 C6.44803371,7.29960674 10.1499438,4.29488764 13.8631461,3.87932584 C18.5588764,3.35370787 22.966236,5.60297753 23.5747753,10.0203933 C24.2598876,15.0060112 21.455,20.4057865 16.4338764,20.0174719 L16.4338764,20.0174719 Z"
           id="Shape"
           sketch:type="MSShapeGroup"
           style="fill:#ffffff" />
      </g>
    </g>
  </g>
</svg>
