<?xml version="1.0" encoding="UTF-8" standalone="no"?>
<svg
   xmlns:sketch="http://www.bohemiancoding.com/sketch/ns"
   xmlns:dc="http://purl.org/dc/elements/1.1/"
   xmlns:cc="http://creativecommons.org/ns#"
   xmlns:rdf="http://www.w3.org/1999/02/22-rdf-syntax-ns#"
   xmlns:svg="http://www.w3.org/2000/svg"
   xmlns="http://www.w3.org/2000/svg"
   xmlns:sodipodi="http://sodipodi.sourceforge.net/DTD/sodipodi-0.dtd"
   xmlns:inkscape="http://www.inkscape.org/namespaces/inkscape"
   width="30px"
   height="30px"
   viewBox="0 0 30 30"
   version="1.1"
   id="svg3345"
   inkscape:version="0.91 r13725"
   sodipodi:docname="icon_instagram_b.svg">
  <metadata
     id="metadata3367">
    <rdf:RDF>
      <cc:Work
         rdf:about="">
        <dc:format>image/svg+xml</dc:format>
        <dc:type
           rdf:resource="http://purl.org/dc/dcmitype/StillImage" />
        <dc:title>icon_instagram</dc:title>
      </cc:Work>
    </rdf:RDF>
  </metadata>
  <sodipodi:namedview
     pagecolor="#ffffff"
     bordercolor="#666666"
     borderopacity="1"
     objecttolerance="10"
     gridtolerance="10"
     guidetolerance="10"
     inkscape:pageopacity="0"
     inkscape:pageshadow="2"
     inkscape:window-width="640"
     inkscape:window-height="480"
     id="namedview3365"
     showgrid="false"
     inkscape:zoom="7.8666667"
     inkscape:cx="15"
     inkscape:cy="15"
     inkscape:window-x="0"
     inkscape:window-y="27"
     inkscape:window-maximized="0"
     inkscape:current-layer="svg3345" />
  <!-- Generator: Sketch 3.3.2 (12043) - http://www.bohemiancoding.com/sketch -->
  <title
     id="title3347">icon_instagram</title>
  <desc
     id="desc3349">Created with Sketch.</desc>
  <defs
     id="defs3351" />
  <g
     id="Page-1"
     stroke="none"
     stroke-width="1"
     fill="none"
     fill-rule="evenodd"
     sketch:type="MSPage">
    <g
       id="Artboard-3"
       sketch:type="MSArtboardGroup"
       transform="translate(-292.000000, -92.000000)">
      <rect
         id="Rectangle-26"
         stroke="#979797"
         fill="#D8D8D8"
         sketch:type="MSShapeGroup"
         x="0"
         y="0"
         width="1735"
         height="1028"
         style="fill:none" />
      <g
         id="icon_instagram"
         sketch:type="MSLayerGroup"
         transform="translate(292.000000, 92.000000)"
         fill="#000000">
        <g
           id="Group"
           sketch:type="MSShapeGroup">
          <path
             d="M14.895,17.8776 C16.5384,17.8776 17.8782,16.5402 17.8782,14.8956 C17.8782,14.2464 17.6658,13.647 17.3142,13.1574 C16.7724,12.4062 15.8916,11.9136 14.8968,11.9136 C13.9014,11.9136 13.0212,12.4056 12.4782,13.1568 C12.1254,13.6464 11.9148,14.2458 11.9142,14.895 C11.9124,16.5396 13.251,17.8776 14.895,17.8776 L14.895,17.8776 Z"
             id="Shape"
             style="fill:#000000" />
          <path
             d="M21.4068,11.2476 L21.4068,8.748 L21.4068,8.376 L21.033,8.3772 L18.5346,8.385 L18.5442,11.2572 L21.4068,11.2476 Z"
             id="path3359"
             style="fill:#000000" />
          <path
             d="M14.8956,0 C6.6822,0 0,6.6822 0,14.8956 C0,23.1084 6.6822,29.7912 14.8956,29.7912 C23.1084,29.7912 29.7912,23.1084 29.7912,14.8956 C29.7912,6.6822 23.1096,0 14.8956,0 L14.8956,0 Z M23.367,13.1574 L23.367,20.0934 C23.367,21.9 21.8982,23.3682 20.0928,23.3682 L9.6984,23.3682 C7.8924,23.3682 6.4242,21.9 6.4242,20.0934 L6.4242,13.1574 L6.4242,9.699 C6.4242,7.893 7.8924,6.4248 9.6984,6.4248 L20.0922,6.4248 C21.8982,6.4248 23.367,7.893 23.367,9.699 L23.367,13.1574 L23.367,13.1574 Z"
             id="path3361"
             style="fill:#000000" />
          <path
             d="M19.5294,14.8956 C19.5294,17.4498 17.451,19.5294 14.8956,19.5294 C12.3402,19.5294 10.2624,17.4498 10.2624,14.8956 C10.2624,14.2812 10.3848,13.6938 10.6032,13.1574 L8.0742,13.1574 L8.0742,20.0934 C8.0742,20.9898 8.802,21.7158 9.6978,21.7158 L20.0916,21.7158 C20.9862,21.7158 21.7152,20.9898 21.7152,20.0934 L21.7152,13.1574 L19.185,13.1574 C19.4052,13.6938 19.5294,14.2812 19.5294,14.8956 L19.5294,14.8956 Z"
             id="path3363"
             style="fill:#000000" />
        </g>
      </g>
    </g>
  </g>
</svg>
