<?xml version="1.0" encoding="UTF-8" standalone="no"?>
<svg width="70px" height="60px" viewBox="0 0 70 60" version="1.1" xmlns="http://www.w3.org/2000/svg" xmlns:xlink="http://www.w3.org/1999/xlink" xmlns:sketch="http://www.bohemiancoding.com/sketch/ns">
    <!-- Generator: Sketch 3.3.2 (12043) - http://www.bohemiancoding.com/sketch -->
    <title>Blogger Relations Icon</title>
    <desc>Created with Sketch.</desc>
    <defs></defs>
    <g id="Page-1" stroke="none" stroke-width="1" fill="none" fill-rule="evenodd" sketch:type="MSPage">
        <g id="Macheete_Draw" sketch:type="MSArtboardGroup" transform="translate(-437.000000, -1221.000000)" fill="#4A4A4A">
            <g id="Leistungen" sketch:type="MSLayerGroup" transform="translate(145.000000, 1074.000000)">
                <g id="Icons-Leistungen" transform="translate(45.000000, 147.000000)" sketch:type="MSShapeGroup">
                    <path d="M297.890585,0 C293.221845,0 288.739704,1.73593441 285.254641,4.89303553 C283.931486,6.0899067 282.798699,7.44887381 281.869475,8.95108849 C280.940251,7.44887381 279.807464,6.0899067 278.484309,4.88926586 C275.001131,1.73593441 270.517105,0 265.848365,0 C255.455376,0 247,8.4553765 247,18.8483649 C247,25.8656112 249.182641,31.4013759 254.296202,37.3668834 C261.726227,46.0371313 280.531241,59.2686834 281.328527,59.8284799 C281.490623,59.9434549 281.680991,60 281.869475,60 C282.057959,60 282.248327,59.9434549 282.410423,59.8284799 C283.207709,59.2686834 302.014607,46.0371313 309.444633,37.3668834 C314.556309,31.4013759 316.73895,25.8618415 316.73895,18.8483649 C316.73895,8.4553765 308.283574,0 297.890585,0 L297.890585,0 Z M308.014042,36.1417397 C301.426538,43.8243332 285.056734,55.6328339 281.869475,57.9040618 C278.682217,55.6328339 262.312412,43.8243332 255.726793,36.1417397 C250.931769,30.5456602 248.884836,25.3736688 248.884836,18.8483649 C248.884836,9.4939214 256.495806,1.88483649 265.848365,1.88483649 C270.045896,1.88483649 274.0851,3.44736594 277.217699,6.2859297 C278.797192,7.72029026 280.07888,9.40721892 281.026953,11.3071341 C281.347375,11.9479785 282.391575,11.9479785 282.711997,11.3071341 C283.66007,9.40721892 284.941759,7.72029026 286.521252,6.28781453 C289.65385,3.44736594 293.693054,1.88483649 297.890585,1.88483649 C307.243144,1.88483649 314.854114,9.4939214 314.854114,18.8483649 C314.854114,25.3736688 312.809066,30.5456602 308.014042,36.1417397 L308.014042,36.1417397 Z" id="Blogger-Relations-Icon"></path>
                </g>
            </g>
        </g>
    </g>
</svg>