<?xml version="1.0" encoding="UTF-8" standalone="no"?>
<svg width="74px" height="60px" viewBox="0 0 74 60" version="1.1" xmlns="http://www.w3.org/2000/svg" xmlns:xlink="http://www.w3.org/1999/xlink" xmlns:sketch="http://www.bohemiancoding.com/sketch/ns">
    <!-- Generator: Sketch 3.3.2 (12043) - http://www.bohemiancoding.com/sketch -->
    <title>Public Releations Icon</title>
    <desc>Created with Sketch.</desc>
    <defs></defs>
    <g id="Page-1" stroke="none" stroke-width="1" fill="none" fill-rule="evenodd" sketch:type="MSPage">
        <g id="Macheete_Draw" sketch:type="MSArtboardGroup" transform="translate(-190.000000, -1221.000000)" fill="#4A4A4A">
            <g id="Leistungen" sketch:type="MSLayerGroup" transform="translate(145.000000, 1074.000000)">
                <g id="Icons-Leistungen" transform="translate(45.000000, 147.000000)" sketch:type="MSShapeGroup">
                    <g id="Public-Releations-Icon">
                        <path d="M72.7594737,0.921052632 C72.2528947,0.921052632 71.8384211,1.33552632 71.8384211,1.84210526 L71.8384211,58.9473684 C71.8384211,59.4539474 72.2528947,59.8684211 72.7594737,59.8684211 C73.2660526,59.8684211 73.6805263,59.4539474 73.6805263,58.9473684 L73.6805263,1.84210526 C73.6805263,1.33552632 73.2660526,0.921052632 72.7594737,0.921052632" id="Fill-1"></path>
                        <path d="M69.4786842,3.13894737 C69.1655263,2.98605263 68.7860526,3.02657895 68.5097368,3.24026316 L67.4689474,4.06 C61.9831579,8.39815789 52.8076316,15.6578947 34.0789474,15.6578947 L8.53078947,15.6578947 C5.85789474,15.6578947 3.68421053,17.8684211 3.68421053,20.5836842 L3.68421053,40.3218421 C3.68421053,42.9726316 5.85789474,45.1315789 8.53078947,45.1315789 L14.7828947,45.1315789 C14.945,47.2039474 15.7076316,52.1205263 19.3015789,55.7439474 C22.0186842,58.4813158 25.7489474,59.8684211 30.3947368,59.8684211 C30.9013158,59.8684211 31.3157895,59.4539474 31.3157895,58.9473684 C31.3157895,58.4407895 30.9013158,58.0263158 30.3947368,58.0263158 C26.2647368,58.0263158 22.9802632,56.8252632 20.6186842,54.4563158 C17.5460526,51.3671053 16.8128947,47.0418421 16.6360526,45.1315789 L22.1513158,45.1315789 C22.3097368,46.3878947 22.8181579,48.5965789 24.5,50.2931579 C25.9534211,51.7594737 27.9373684,52.5 30.3947368,52.5 C30.9013158,52.5 31.3157895,52.0855263 31.3157895,51.5789474 C31.3157895,51.0723684 30.9013158,50.6578947 30.3947368,50.6578947 C28.4513158,50.6578947 26.9113158,50.1015789 25.8189474,49.0055263 C24.6086842,47.7934211 24.1721053,46.1613158 24.0118421,45.1315789 L33.9536842,45.1315789 C52.7707895,45.1315789 62.02,52.4318421 67.5463158,56.7939474 L68.5078947,57.5510526 C68.6718421,57.68 68.8744737,57.7463158 69.0734211,57.7463158 C69.2115789,57.7463158 69.3497368,57.7131579 69.4768421,57.6505263 C69.7955263,57.4957895 69.9944737,57.1752632 69.9944737,56.8252632 L69.9944737,3.96421053 C69.9963158,3.61421053 69.7955263,3.29368421 69.4786842,3.13894737 L69.4786842,3.13894737 Z M5.52631579,40.3218421 L5.52631579,20.5836842 C5.52631579,18.8834211 6.87105263,17.5 8.53078947,17.5 L14.7368421,17.5 L14.7368421,43.2894737 L8.53078947,43.2894737 C6.84526316,43.2894737 5.52631579,41.9852632 5.52631579,40.3218421 L5.52631579,40.3218421 Z M68.1542105,54.9242105 C62.3792105,50.3852632 52.8168421,43.2894737 33.9536842,43.2894737 L23.275,43.2894737 C23.1884211,43.26 23.1,43.2342105 23.0005263,43.2323684 C23.0005263,43.2323684 23.0005263,43.2323684 22.9968421,43.2323684 C22.9010526,43.2323684 22.8052632,43.26 22.715,43.2894737 L16.5789474,43.2894737 L16.5789474,17.5 L34.0789474,17.5 C52.9347368,17.5 62.4344737,10.3821053 68.1542105,5.86526316 L68.1542105,54.9242105 L68.1542105,54.9242105 Z" id="Fill-2"></path>
                        <path d="M0.921052632,41.1839474 C1.42763158,41.1839474 1.84210526,40.7713158 1.84210526,40.2628947 L1.84210526,20.5265789 C1.84210526,20.0181579 1.42763158,19.6055263 0.921052632,19.6055263 C0.414473684,19.6055263 0,20.0181579 0,20.5265789 L0,40.2628947 C0,40.7713158 0.414473684,41.1839474 0.921052632,41.1839474" id="Fill-3"></path>
                    </g>
                </g>
            </g>
        </g>
    </g>
</svg>