<?xml version="1.0" encoding="UTF-8" standalone="no"?>
<svg width="59px" height="59px" viewBox="0 0 59 59" version="1.1" xmlns="http://www.w3.org/2000/svg" xmlns:xlink="http://www.w3.org/1999/xlink" xmlns:sketch="http://www.bohemiancoding.com/sketch/ns">
    <!-- Generator: Sketch 3.3.2 (12043) - http://www.bohemiancoding.com/sketch -->
    <title>Contentmarketing Icon</title>
    <desc>Created with Sketch.</desc>
    <defs></defs>
    <g id="Page-1" stroke="none" stroke-width="1" fill="none" fill-rule="evenodd" sketch:type="MSPage">
        <g id="Macheete_Draw" sketch:type="MSArtboardGroup" transform="translate(-942.000000, -1221.000000)" fill="#9B9B9B">
            <g id="Leistungen" sketch:type="MSLayerGroup" transform="translate(145.000000, 1074.000000)">
                <g id="Icons-Leistungen" transform="translate(45.000000, 147.000000)" sketch:type="MSShapeGroup">
                    <path d="M752,57.2022727 C752,57.7040909 752.407273,58.1113636 752.909091,58.1113636 L809.474545,58.1113636 C809.596364,58.1113636 809.714545,58.0877273 809.825455,58.0404545 C809.936364,57.9931818 810.036364,57.9259091 810.12,57.8422727 C810.121818,57.8404545 810.123636,57.8404545 810.125455,57.8386364 C810.130909,57.8331818 810.130909,57.8222727 810.138182,57.815 C810.230909,57.7168182 810.290909,57.595 810.332727,57.4622727 C810.345455,57.4222727 810.350909,57.3804545 810.358182,57.3368182 C810.365455,57.2895455 810.385455,57.2513636 810.385455,57.2040909 C810.385455,57.1313636 810.36,57.0659091 810.343636,57.0004545 C810.338182,56.975 810.349091,56.9495455 810.34,56.9240909 L804.594545,39.2604545 C804.550909,39.1240909 804.474545,38.9986364 804.372727,38.8986364 L773.250909,7.77681818 C773.218182,7.72772727 773.194545,7.66954545 773.150909,7.62590909 L766.352727,0.827727273 C765.249091,-0.275909091 763.452727,-0.275909091 762.347273,0.827727273 L752.829091,10.3459091 C752.294545,10.8804545 752,11.5913636 752,12.3477273 C752,13.1040909 752.294545,13.8168182 752.829091,14.3513636 L759.476364,20.9968182 C759.509091,21.0477273 759.530909,21.1040909 759.574545,21.1459091 L790.647273,52.4295455 C790.754545,52.5386364 790.885455,52.6168182 791.032727,52.6604545 L803.238182,56.2968182 L752.909091,56.2968182 C752.407273,56.2931818 752,56.7004545 752,57.2022727 L752,57.2022727 Z M763.567273,18.4422727 L792.089091,46.5986364 L791.04,50.2368182 L761.505455,20.5040909 L763.567273,18.4422727 L763.567273,18.4422727 Z M793.483636,45.4222727 L764.850909,17.1586364 L769.281818,12.7277273 L797.658182,41.1786364 L797.658182,45.4222727 L793.483636,45.4222727 L793.483636,45.4222727 Z M798.790909,39.7404545 L770.567273,11.4422727 L772.456364,9.55136364 L801.930909,39.0259091 L798.790909,39.7404545 L798.790909,39.7404545 Z M793.796364,47.2404545 L798.567273,47.2404545 C799.069091,47.2404545 799.476364,46.8313636 799.476364,46.3313636 L799.476364,41.4495455 L803.125455,40.6204545 L808.076364,55.8386364 L792.643636,51.2404545 L793.796364,47.2404545 L793.796364,47.2404545 Z M753.818182,12.3477273 C753.818182,12.0768182 753.923636,11.8222727 754.114545,11.6295455 L763.632727,2.11318182 C764.027273,1.71681818 764.669091,1.715 765.067273,2.11318182 L771.198182,8.24227273 L760.247273,19.1931818 L754.118182,13.0622727 C753.923636,12.8731818 753.818182,12.6168182 753.818182,12.3477273 L753.818182,12.3477273 Z" id="Imported-Layers"></path>
                </g>
            </g>
        </g>
    </g>
</svg>