<?xml version="1.0" encoding="UTF-8" standalone="no"?>
<svg width="40px" height="60px" viewBox="0 0 40 60" version="1.1" xmlns="http://www.w3.org/2000/svg" xmlns:xlink="http://www.w3.org/1999/xlink" xmlns:sketch="http://www.bohemiancoding.com/sketch/ns">
    <!-- Generator: Sketch 3.3.2 (12043) - http://www.bohemiancoding.com/sketch -->
    <title>Workshop Icon</title>
    <desc>Created with Sketch.</desc>
    <defs></defs>
    <g id="Page-1" stroke="none" stroke-width="1" fill="none" fill-rule="evenodd" sketch:type="MSPage">
        <g id="Macheete_Draw" sketch:type="MSArtboardGroup" transform="translate(-1184.000000, -1221.000000)" fill="#9B9B9B">
            <g id="Leistungen" sketch:type="MSLayerGroup" transform="translate(145.000000, 1074.000000)">
                <g id="Icons-Leistungen" transform="translate(45.000000, 147.000000)" sketch:type="MSShapeGroup">
                    <g id="Workshop-Icon" transform="translate(994.000000, 0.000000)">
                        <path d="M20,0.909090909 C10.3836364,0.909090909 0,8.55636364 0,20.9090909 C0,27.0072727 2.42545455,32.1345455 7.08363636,36.0218182 C7.13454545,36.0836364 7.18727273,36.1363636 7.25090909,36.1818182 C10.7072727,39.9309091 10.88,40.6436364 10.9054545,42.2927273 C10.9163636,42.9454545 10.9127273,43.14 10.9054545,43.2436364 L10.8981818,43.6236364 C10.8690909,44.4454545 10.8272727,45.8218182 12.5327273,46.3418182 L27.2472727,49.5818182 C27.3145455,49.5945455 27.38,49.6018182 27.4436364,49.6018182 C27.8618182,49.6018182 28.2381818,49.3127273 28.3309091,48.8872727 C28.4418182,48.3963636 28.1290909,47.9127273 27.6381818,47.8036364 L12.9945455,44.5836364 C12.7090909,44.5 12.6890909,44.4909091 12.7127273,43.6781818 L12.7163636,43.3309091 C12.7163636,43.3309091 12.7381818,43.1890909 12.72,42.2654545 C12.6890909,39.9581818 12.1836364,38.8436364 8.52363636,34.8872727 C8.45090909,34.7981818 8.36727273,34.7272727 8.27454545,34.6690909 C3.98727273,31.0290909 1.81818182,26.4 1.81818182,20.9090909 C1.81818182,9.67818182 11.2527273,2.72727273 20,2.72727273 C28.9381818,2.72727273 38.1818182,9.52909091 38.1818182,20.9090909 C38.1818182,28.1436364 34.6763636,32.1290909 31.7854545,34.6381818 C31.6872727,34.6854545 31.5981818,34.7527273 31.52,34.8363636 C27.8163636,38.8436364 27.3127273,39.9581818 27.28,42.2654545 C27.28,42.3181818 27.2763636,42.3818182 27.28,42.4545455 L27.2763636,42.5163636 C27.2690909,42.6545455 27.2509091,42.7309091 27.2509091,42.76 C27.1909091,42.7527273 27.0381818,42.7272727 27.0381818,42.7272727 L19.4145455,40.9345455 C18.9163636,40.82 18.4345455,41.1218182 18.32,41.6090909 C18.2072727,42.0981818 18.5090909,42.5872727 18.9945455,42.7018182 L26.5309091,44.4709091 C26.6309091,44.5054545 27.5345455,44.8018182 28.2981818,44.2654545 C28.6327273,44.0309091 29.02,43.5709091 29.0872727,42.6909091 L29.0945455,42.6072727 C29.0981818,42.5454545 29.0981818,42.4872727 29.0981818,42.4254545 L29.0981818,42.38 L29.0981818,42.2945455 C29.1236364,40.6527273 29.2927273,39.9418182 32.7454545,36.1927273 C32.76,36.1781818 32.7763636,36.1690909 32.7909091,36.1527273 C37.6418182,32.0781818 40,27.0909091 40,20.9090909 C40,8.39090909 29.8290909,0.909090909 20,0.909090909" id="Fill-1"></path>
                        <path d="M27.2727273,54.5454545 C27.6890909,54.5454545 28.0636364,54.26 28.1563636,53.8345455 C28.2709091,53.3472727 27.9654545,52.86 27.4709091,52.7490909 L12.9254545,49.4509091 C12.4363636,49.3436364 11.9490909,49.6490909 11.84,50.1363636 C11.7254545,50.6254545 12.0345455,51.1109091 12.5254545,51.2236364 L27.0709091,54.52 C27.1418182,54.5381818 27.2090909,54.5454545 27.2727273,54.5454545" id="Fill-2"></path>
                        <path d="M13.8345455,54.6454545 C13.3418182,54.5345455 12.8581818,54.8418182 12.7490909,55.3309091 C12.6381818,55.8218182 12.9436364,56.3072727 13.4381818,56.4163636 L25.2563636,59.0654545 C25.3236364,59.0818182 25.3872727,59.0890909 25.4509091,59.0890909 C25.8690909,59.0890909 26.2472727,58.8018182 26.3381818,58.3763636 C26.4490909,57.8872727 26.1436364,57.4 25.6490909,57.2927273 L13.8345455,54.6454545" id="Fill-3"></path>
                    </g>
                </g>
            </g>
        </g>
    </g>
</svg>